EESchema Schematic File Version 2
LIBS:power
LIBS:device
LIBS:transistors
LIBS:conn
LIBS:linear
LIBS:regul
LIBS:74xx
LIBS:cmos4000
LIBS:adc-dac
LIBS:memory
LIBS:xilinx
LIBS:microcontrollers
LIBS:dsp
LIBS:microchip
LIBS:analog_switches
LIBS:motorola
LIBS:texas
LIBS:intel
LIBS:audio
LIBS:interface
LIBS:digital-audio
LIBS:philips
LIBS:display
LIBS:cypress
LIBS:siliconi
LIBS:opto
LIBS:atmel
LIBS:contrib
LIBS:valves
LIBS:kicad-lib
LIBS:PCI-01-00A-cache
EELAYER 25 0
EELAYER END
$Descr A3 16535 11693
encoding utf-8
Sheet 1 1
Title "P1701: PCI-01-00A \"3-CH AUDIO MIXER\""
Date "2017-01-03"
Rev "REV 01A"
Comp "Tiago Gala"
Comment1 "https://gitlab.com/tiagogala/P1701-Audio_Mixer"
Comment2 "gitlab.com/tiagogala"
Comment3 ""
Comment4 ""
$EndDescr
$Comp
L Audio_Jack_Stereo P1
U 1 1 586C30F3
P 4950 3700
F 0 "P1" H 4950 3700 60  0000 C CNN
F 1 "Audio_Jack_Stereo" H 4950 4200 60  0000 C CNN
F 2 "kicad-lib:3.5mm_Jack" H 4950 3700 60  0001 C CNN
F 3 "" H 4950 3700 60  0001 C CNN
	1    4950 3700
	1    0    0    -1  
$EndComp
$Comp
L POT_DUAL_GANG RV1
U 1 1 586C39BF
P 5800 3375
F 0 "RV1" H 5800 3225 30  0000 C CNN
F 1 "10K" H 5800 3275 30  0000 C CNN
F 2 "kicad-lib:P140KH_POT" H 5800 3375 60  0001 C CNN
F 3 "" H 5800 3375 60  0000 C CNN
	1    5800 3375
	1    0    0    -1  
$EndComp
$Comp
L GND #PWR01
U 1 1 586C3B2F
P 6150 3700
F 0 "#PWR01" H 6150 3450 50  0001 C CNN
F 1 "GND" H 6000 3650 50  0000 C CNN
F 2 "" H 6150 3700 60  0000 C CNN
F 3 "" H 6150 3700 60  0000 C CNN
	1    6150 3700
	1    0    0    -1  
$EndComp
Text Notes 4000 3500 0    60   ~ 12
CHANNEL A
$Comp
L CP1_Small C2
U 1 1 586C3E2B
P 6400 3150
F 0 "C2" H 6410 3220 50  0000 L CNN
F 1 "2.2u" H 6410 3070 50  0000 L CNN
F 2 "SMD_Packages:SMD-1206_Pol" H 6400 3150 60  0001 C CNN
F 3 "" H 6400 3150 60  0000 C CNN
	1    6400 3150
	0    -1   -1   0   
$EndComp
$Comp
L CP1_Small C3
U 1 1 586C3F94
P 6400 3850
F 0 "C3" H 6410 3920 50  0000 L CNN
F 1 "2.2u" H 6410 3770 50  0000 L CNN
F 2 "SMD_Packages:SMD-1206_Pol" H 6400 3850 60  0001 C CNN
F 3 "" H 6400 3850 60  0000 C CNN
	1    6400 3850
	0    -1   -1   0   
$EndComp
Text Notes 5150 3000 0    30   ~ 0
Dual Gang Potentiometer:\nStereo Volume Control on this channel
$Comp
L R R1
U 1 1 586C497E
P 6750 3150
F 0 "R1" V 6830 3150 50  0000 C CNN
F 1 "10K" V 6750 3150 50  0000 C CNN
F 2 "Resistors_SMD:R_0603_HandSoldering" V 6680 3150 30  0001 C CNN
F 3 "" H 6750 3150 30  0000 C CNN
	1    6750 3150
	0    1    1    0   
$EndComp
$Comp
L R R2
U 1 1 586C49E9
P 6750 3850
F 0 "R2" V 6830 3850 50  0000 C CNN
F 1 "10K" V 6750 3850 50  0000 C CNN
F 2 "Resistors_SMD:R_0603_HandSoldering" V 6680 3850 30  0001 C CNN
F 3 "" H 6750 3850 30  0000 C CNN
	1    6750 3850
	0    1    1    0   
$EndComp
$Comp
L GND #PWR02
U 1 1 586C4E63
P 5350 3700
F 0 "#PWR02" H 5350 3450 50  0001 C CNN
F 1 "GND" H 5200 3650 50  0000 C CNN
F 2 "" H 5350 3700 60  0000 C CNN
F 3 "" H 5350 3700 60  0000 C CNN
	1    5350 3700
	1    0    0    -1  
$EndComp
$Comp
L POT RV4
U 1 1 586C5C3E
P 7050 3500
F 0 "RV4" H 7050 3400 50  0000 C CNN
F 1 "25K" H 7050 3500 50  0000 C CNN
F 2 "kicad-lib:P120PK_POT" H 7050 3500 60  0001 C CNN
F 3 "" H 7050 3500 60  0000 C CNN
	1    7050 3500
	0    1    -1   0   
$EndComp
$Comp
L R R7
U 1 1 586C6067
P 7350 3150
F 0 "R7" V 7430 3150 50  0000 C CNN
F 1 "10K" V 7350 3150 50  0000 C CNN
F 2 "Resistors_SMD:R_0603_HandSoldering" V 7280 3150 30  0001 C CNN
F 3 "" H 7350 3150 30  0000 C CNN
	1    7350 3150
	0    1    1    0   
$EndComp
$Comp
L R R8
U 1 1 586C6161
P 7350 3850
F 0 "R8" V 7430 3850 50  0000 C CNN
F 1 "10K" V 7350 3850 50  0000 C CNN
F 2 "Resistors_SMD:R_0603_HandSoldering" V 7280 3850 30  0001 C CNN
F 3 "" H 7350 3850 30  0000 C CNN
	1    7350 3850
	0    1    1    0   
$EndComp
$Comp
L GND #PWR03
U 1 1 586C61C0
P 7300 3600
F 0 "#PWR03" H 7300 3350 50  0001 C CNN
F 1 "GND" H 7450 3550 50  0000 C CNN
F 2 "" H 7300 3600 60  0000 C CNN
F 3 "" H 7300 3600 60  0000 C CNN
	1    7300 3600
	1    0    0    -1  
$EndComp
Text GLabel 7600 3150 2    30   Input ~ 0
LEFT
Text GLabel 7600 3850 2    30   Input ~ 0
RIGHT
Text Notes 4050 3600 0    60   ~ 12
[STEREO]
Text GLabel 8850 4150 0    30   Input ~ 0
LEFT
$Comp
L R R14
U 1 1 586CA86D
P 9550 3650
F 0 "R14" V 9630 3650 50  0000 C CNN
F 1 "33K" V 9550 3650 50  0000 C CNN
F 2 "Resistors_SMD:R_0603_HandSoldering" V 9480 3650 30  0001 C CNN
F 3 "" H 9550 3650 30  0000 C CNN
	1    9550 3650
	0    1    1    0   
$EndComp
$Comp
L C_Small C7
U 1 1 586CAF78
P 9550 3500
F 0 "C7" H 9560 3570 50  0000 L CNN
F 1 "10n" H 9560 3420 50  0000 L CNN
F 2 "Capacitors_SMD:C_0603_HandSoldering" H 9550 3500 60  0001 C CNN
F 3 "" H 9550 3500 60  0000 C CNN
	1    9550 3500
	0    1    -1   0   
$EndComp
$Comp
L R R16
U 1 1 586CB9A1
P 10400 4250
F 0 "R16" V 10480 4250 50  0000 C CNN
F 1 "10K" V 10400 4250 50  0000 C CNN
F 2 "Resistors_SMD:R_0603_HandSoldering" V 10330 4250 30  0001 C CNN
F 3 "" H 10400 4250 30  0000 C CNN
	1    10400 4250
	0    -1   1    0   
$EndComp
$Comp
L R R18
U 1 1 586CD43F
P 11250 3650
F 0 "R18" V 11330 3650 50  0000 C CNN
F 1 "10K" V 11250 3650 50  0000 C CNN
F 2 "Resistors_SMD:R_0603_HandSoldering" V 11180 3650 30  0001 C CNN
F 3 "" H 11250 3650 30  0000 C CNN
	1    11250 3650
	0    -1   1    0   
$EndComp
Text GLabel 9350 4650 0    30   Input ~ 0
U1_V+
Text GLabel 9350 3850 0    30   Input ~ 0
U1_V-
Text GLabel 11050 4750 0    30   Input ~ 0
U1_V+
Text GLabel 11050 3950 0    30   Input ~ 0
U1_V-
$Comp
L R R20
U 1 1 586DA046
P 12750 4500
F 0 "R20" V 12830 4500 50  0000 C CNN
F 1 "100R" V 12750 4500 50  0000 C CNN
F 2 "Resistors_SMD:R_0603_HandSoldering" V 12680 4500 30  0001 C CNN
F 3 "" H 12750 4500 30  0000 C CNN
	1    12750 4500
	0    -1   1    0   
$EndComp
$Comp
L Audio_Jack_Stereo P5
U 1 1 586DAAD0
P 13650 5300
F 0 "P5" H 13650 5300 60  0000 C CNN
F 1 "Audio_Jack_Stereo" H 13650 5800 60  0000 C CNN
F 2 "kicad-lib:3.5mm_Jack" H 13650 5300 60  0001 C CNN
F 3 "" H 13650 5300 60  0001 C CNN
	1    13650 5300
	-1   0    0    -1  
$EndComp
$Comp
L R R21
U 1 1 586DC7D0
P 12750 5700
F 0 "R21" V 12830 5700 50  0000 C CNN
F 1 "100R" V 12750 5700 50  0000 C CNN
F 2 "Resistors_SMD:R_0603_HandSoldering" V 12680 5700 30  0001 C CNN
F 3 "" H 12750 5700 30  0000 C CNN
	1    12750 5700
	0    -1   -1   0   
$EndComp
Text Notes 14100 5050 0    60   ~ 12
OUTPUT
Text Notes 14100 5150 0    60   ~ 12
[STEREO]
Text Notes 6800 3000 0    30   ~ 0
Potentiometer:\nBalance Control
Text Notes 5650 2500 0    60   ~ 12
INPUT STAGE
Text Notes 5600 2600 0    30   ~ 0
Copy input blocks as needed
Text Notes 10000 2500 0    60   ~ 12
OUTPUT STAGE
Text Notes 9450 2600 0    30   ~ 0
To add more outputs, copy the last Resistor + Capacitor and route to a new connector
$Comp
L Audio_Jack_Stereo P2
U 1 1 586E7438
P 4950 5500
F 0 "P2" H 4950 5500 60  0000 C CNN
F 1 "Audio_Jack_Stereo" H 4950 6000 60  0000 C CNN
F 2 "kicad-lib:3.5mm_Jack" H 4950 5500 60  0001 C CNN
F 3 "" H 4950 5500 60  0001 C CNN
	1    4950 5500
	1    0    0    -1  
$EndComp
$Comp
L POT_DUAL_GANG RV2
U 1 1 586E743E
P 5800 5175
F 0 "RV2" H 5800 5025 30  0000 C CNN
F 1 "10K" H 5800 5075 30  0000 C CNN
F 2 "kicad-lib:P140KH_POT" H 5800 5175 60  0001 C CNN
F 3 "" H 5800 5175 60  0000 C CNN
	1    5800 5175
	1    0    0    -1  
$EndComp
$Comp
L GND #PWR04
U 1 1 586E7444
P 6150 5500
F 0 "#PWR04" H 6150 5250 50  0001 C CNN
F 1 "GND" H 6000 5450 50  0000 C CNN
F 2 "" H 6150 5500 60  0000 C CNN
F 3 "" H 6150 5500 60  0000 C CNN
	1    6150 5500
	1    0    0    -1  
$EndComp
Text Notes 4000 5300 0    60   ~ 12
CHANNEL B
$Comp
L CP1_Small C4
U 1 1 586E744B
P 6400 4950
F 0 "C4" H 6410 5020 50  0000 L CNN
F 1 "2.2u" H 6410 4870 50  0000 L CNN
F 2 "SMD_Packages:SMD-1206_Pol" H 6400 4950 60  0001 C CNN
F 3 "" H 6400 4950 60  0000 C CNN
	1    6400 4950
	0    -1   -1   0   
$EndComp
$Comp
L CP1_Small C5
U 1 1 586E7451
P 6400 5650
F 0 "C5" H 6410 5720 50  0000 L CNN
F 1 "2.2u" H 6410 5570 50  0000 L CNN
F 2 "SMD_Packages:SMD-1206_Pol" H 6400 5650 60  0001 C CNN
F 3 "" H 6400 5650 60  0000 C CNN
	1    6400 5650
	0    -1   -1   0   
$EndComp
Text Notes 5400 4800 0    30   ~ 0
Dual Gang Potentiometer:\nStereo Volume Control on this channel
$Comp
L R R3
U 1 1 586E745C
P 6750 4950
F 0 "R3" V 6830 4950 50  0000 C CNN
F 1 "10K" V 6750 4950 50  0000 C CNN
F 2 "Resistors_SMD:R_0603_HandSoldering" V 6680 4950 30  0001 C CNN
F 3 "" H 6750 4950 30  0000 C CNN
	1    6750 4950
	0    1    1    0   
$EndComp
$Comp
L R R4
U 1 1 586E7463
P 6750 5650
F 0 "R4" V 6830 5650 50  0000 C CNN
F 1 "10K" V 6750 5650 50  0000 C CNN
F 2 "Resistors_SMD:R_0603_HandSoldering" V 6680 5650 30  0001 C CNN
F 3 "" H 6750 5650 30  0000 C CNN
	1    6750 5650
	0    1    1    0   
$EndComp
$Comp
L GND #PWR05
U 1 1 586E746A
P 5350 5500
F 0 "#PWR05" H 5350 5250 50  0001 C CNN
F 1 "GND" H 5200 5450 50  0000 C CNN
F 2 "" H 5350 5500 60  0000 C CNN
F 3 "" H 5350 5500 60  0000 C CNN
	1    5350 5500
	1    0    0    -1  
$EndComp
$Comp
L POT RV5
U 1 1 586E747A
P 7050 5300
F 0 "RV5" H 7050 5200 50  0000 C CNN
F 1 "25K" H 7050 5300 50  0000 C CNN
F 2 "kicad-lib:P120PK_POT" H 7050 5300 60  0001 C CNN
F 3 "" H 7050 5300 60  0000 C CNN
	1    7050 5300
	0    1    -1   0   
$EndComp
$Comp
L R R9
U 1 1 586E7484
P 7350 4950
F 0 "R9" V 7430 4950 50  0000 C CNN
F 1 "10K" V 7350 4950 50  0000 C CNN
F 2 "Resistors_SMD:R_0603_HandSoldering" V 7280 4950 30  0001 C CNN
F 3 "" H 7350 4950 30  0000 C CNN
	1    7350 4950
	0    1    1    0   
$EndComp
$Comp
L R R10
U 1 1 586E748A
P 7350 5650
F 0 "R10" V 7430 5650 50  0000 C CNN
F 1 "10K" V 7350 5650 50  0000 C CNN
F 2 "Resistors_SMD:R_0603_HandSoldering" V 7280 5650 30  0001 C CNN
F 3 "" H 7350 5650 30  0000 C CNN
	1    7350 5650
	0    1    1    0   
$EndComp
$Comp
L GND #PWR06
U 1 1 586E7490
P 7300 5400
F 0 "#PWR06" H 7300 5150 50  0001 C CNN
F 1 "GND" H 7450 5350 50  0000 C CNN
F 2 "" H 7300 5400 60  0000 C CNN
F 3 "" H 7300 5400 60  0000 C CNN
	1    7300 5400
	1    0    0    -1  
$EndComp
Text GLabel 7600 4950 2    30   Input ~ 0
LEFT
Text GLabel 7600 5650 2    30   Input ~ 0
RIGHT
Text Notes 4050 5400 0    60   ~ 12
[STEREO]
Text Notes 6800 4800 0    30   ~ 0
Potentiometer:\nBalance Control
$Comp
L GND #PWR07
U 1 1 586E9CA7
P 5950 7250
F 0 "#PWR07" H 5950 7000 50  0001 C CNN
F 1 "GND" H 5800 7200 50  0000 C CNN
F 2 "" H 5950 7250 60  0000 C CNN
F 3 "" H 5950 7250 60  0000 C CNN
	1    5950 7250
	1    0    0    -1  
$EndComp
Text Notes 4000 6900 0    60   ~ 12
CHANNEL C
$Comp
L CP1_Small C1
U 1 1 586E9CB4
P 6300 6900
F 0 "C1" H 6310 6970 50  0000 L CNN
F 1 "2.2u" H 6310 6820 50  0000 L CNN
F 2 "SMD_Packages:SMD-1206_Pol" H 6300 6900 60  0001 C CNN
F 3 "" H 6300 6900 60  0000 C CNN
	1    6300 6900
	0    -1   -1   0   
$EndComp
Text Notes 5400 6400 0    30   ~ 0
Dual Gang Potentiometer:\nStereo Volume Control on this channel
$Comp
L R R5
U 1 1 586E9CBF
P 6750 6550
F 0 "R5" V 6830 6550 50  0000 C CNN
F 1 "10K" V 6750 6550 50  0000 C CNN
F 2 "Resistors_SMD:R_0603_HandSoldering" V 6680 6550 30  0001 C CNN
F 3 "" H 6750 6550 30  0000 C CNN
	1    6750 6550
	0    1    1    0   
$EndComp
$Comp
L R R6
U 1 1 586E9CC6
P 6750 7250
F 0 "R6" V 6830 7250 50  0000 C CNN
F 1 "10K" V 6750 7250 50  0000 C CNN
F 2 "Resistors_SMD:R_0603_HandSoldering" V 6680 7250 30  0001 C CNN
F 3 "" H 6750 7250 30  0000 C CNN
	1    6750 7250
	0    1    1    0   
$EndComp
$Comp
L GND #PWR08
U 1 1 586E9CCD
P 5350 7100
F 0 "#PWR08" H 5350 6850 50  0001 C CNN
F 1 "GND" H 5200 7050 50  0000 C CNN
F 2 "" H 5350 7100 60  0000 C CNN
F 3 "" H 5350 7100 60  0000 C CNN
	1    5350 7100
	1    0    0    -1  
$EndComp
$Comp
L R R11
U 1 1 586E9CE7
P 7350 6550
F 0 "R11" V 7430 6550 50  0000 C CNN
F 1 "10K" V 7350 6550 50  0000 C CNN
F 2 "Resistors_SMD:R_0603_HandSoldering" V 7280 6550 30  0001 C CNN
F 3 "" H 7350 6550 30  0000 C CNN
	1    7350 6550
	0    1    1    0   
$EndComp
$Comp
L R R12
U 1 1 586E9CED
P 7350 7250
F 0 "R12" V 7430 7250 50  0000 C CNN
F 1 "10K" V 7350 7250 50  0000 C CNN
F 2 "Resistors_SMD:R_0603_HandSoldering" V 7280 7250 30  0001 C CNN
F 3 "" H 7350 7250 30  0000 C CNN
	1    7350 7250
	0    1    1    0   
$EndComp
$Comp
L GND #PWR09
U 1 1 586E9CF3
P 7300 7000
F 0 "#PWR09" H 7300 6750 50  0001 C CNN
F 1 "GND" H 7450 6950 50  0000 C CNN
F 2 "" H 7300 7000 60  0000 C CNN
F 3 "" H 7300 7000 60  0000 C CNN
	1    7300 7000
	1    0    0    -1  
$EndComp
Text GLabel 7600 6550 2    30   Input ~ 0
LEFT
Text GLabel 7600 7250 2    30   Input ~ 0
RIGHT
Text Notes 4050 7000 0    60   ~ 12
[MONO]
Text Notes 6800 6400 0    30   ~ 0
Potentiometer:\nBalance Control
$Comp
L Audio_Jack_Mono P3
U 1 1 586EB740
P 4950 7100
F 0 "P3" H 4950 7100 60  0000 C CNN
F 1 "Audio_Jack_Mono" H 4950 7600 60  0000 C CNN
F 2 "kicad-lib:6.35_Jack" H 4950 7100 60  0001 C CNN
F 3 "" H 4950 7100 60  0001 C CNN
	1    4950 7100
	1    0    0    -1  
$EndComp
$Comp
L POT RV6
U 1 1 586E9CDD
P 7050 6900
F 0 "RV6" H 7050 6800 50  0000 C CNN
F 1 "25K" H 7050 6900 50  0000 C CNN
F 2 "kicad-lib:P120PK_POT" H 7050 6900 60  0001 C CNN
F 3 "" H 7050 6900 60  0000 C CNN
	1    7050 6900
	0    1    -1   0   
$EndComp
$Comp
L POT RV3
U 1 1 586EC122
P 5950 6900
F 0 "RV3" H 5950 6800 50  0000 C CNN
F 1 "10K" H 5950 6900 50  0000 C CNN
F 2 "kicad-lib:P120PK_POT" H 5950 6900 60  0001 C CNN
F 3 "" H 5950 6900 60  0000 C CNN
	1    5950 6900
	0    1    1    0   
$EndComp
Text Notes 1350 950  0    60   ~ 12
POWER STAGE
Text Notes 4000 3800 0    30   ~ 0
3.5mm input (Primary Device)
Text Notes 4000 5550 0    30   ~ 0
3.5mm input (Aux. Device - \nmp3 player, etc.)
Text Notes 4000 7150 0    30   ~ 0
1/4" input (Aux. Mono Jack.)
Text Notes 5700 4000 0    60   ~ 12
[VOL]
Text Notes 6950 4000 0    60   ~ 12
[BAL]
Text Notes 5700 5800 0    60   ~ 12
[VOL]
Text Notes 6950 5800 0    60   ~ 12
[BAL]
Text Notes 5850 7500 0    60   ~ 12
[VOL]
Text Notes 6950 7500 0    60   ~ 12
[PAN]
$Comp
L CONN_01X02 P4
U 1 1 586FD3EB
P 1200 1450
F 0 "P4" H 1200 1600 50  0000 C CNN
F 1 "9V BAT CONN." V 1300 1450 50  0000 C CNN
F 2 "Wire_Pads:SolderWirePad_2x_0-8mmDrill" H 1200 1450 60  0001 C CNN
F 3 "" H 1200 1450 60  0000 C CNN
	1    1200 1450
	-1   0    0    -1  
$EndComp
$Comp
L +9V #PWR010
U 1 1 586FDA4E
P 2200 1200
F 0 "#PWR010" H 2200 1050 50  0001 C CNN
F 1 "+9V" H 2200 1340 50  0000 C CNN
F 2 "" H 2200 1200 60  0000 C CNN
F 3 "" H 2200 1200 60  0000 C CNN
	1    2200 1200
	1    0    0    -1  
$EndComp
$Comp
L GND #PWR011
U 1 1 586FE5D6
P 2200 1700
F 0 "#PWR011" H 2200 1450 50  0001 C CNN
F 1 "GND" H 2200 1550 50  0000 C CNN
F 2 "" H 2200 1700 60  0000 C CNN
F 3 "" H 2200 1700 60  0000 C CNN
	1    2200 1700
	1    0    0    -1  
$EndComp
$Comp
L CP1_Small C6
U 1 1 587003BB
P 2400 1450
F 0 "C6" H 2410 1520 50  0000 L CNN
F 1 "10u" H 2410 1370 50  0000 L CNN
F 2 "Capacitors_SMD:C_1206_HandSoldering" H 2400 1450 60  0001 C CNN
F 3 "" H 2400 1450 60  0000 C CNN
	1    2400 1450
	1    0    0    -1  
$EndComp
Text GLabel 12600 3500 0    30   Input ~ 0
U1_V-
Text GLabel 12600 3100 0    30   Input ~ 0
U1_V+
$Comp
L C_Small C13
U 1 1 5870C3E4
P 12750 3300
F 0 "C13" H 12760 3370 50  0000 L CNN
F 1 "0.1u" H 12760 3220 50  0000 L CNN
F 2 "Capacitors_SMD:C_0603_HandSoldering" H 12750 3300 60  0001 C CNN
F 3 "" H 12750 3300 60  0000 C CNN
	1    12750 3300
	1    0    0    1   
$EndComp
$Comp
L C_Small C15
U 1 1 5870C4E0
P 12950 3300
F 0 "C15" H 12960 3370 50  0000 L CNN
F 1 "10n" H 12960 3220 50  0000 L CNN
F 2 "Capacitors_SMD:C_0603_HandSoldering" H 12950 3300 60  0001 C CNN
F 3 "" H 12950 3300 60  0000 C CNN
	1    12950 3300
	1    0    0    1   
$EndComp
$Comp
L C_Small C14
U 1 1 5870E376
P 12750 6850
F 0 "C14" H 12760 6920 50  0000 L CNN
F 1 "0.1u" H 12760 6770 50  0000 L CNN
F 2 "Capacitors_SMD:C_0603_HandSoldering" H 12750 6850 60  0001 C CNN
F 3 "" H 12750 6850 60  0000 C CNN
	1    12750 6850
	1    0    0    1   
$EndComp
$Comp
L C_Small C16
U 1 1 5870E37C
P 12950 6850
F 0 "C16" H 12960 6920 50  0000 L CNN
F 1 "10n" H 12960 6770 50  0000 L CNN
F 2 "Capacitors_SMD:C_0603_HandSoldering" H 12950 6850 60  0001 C CNN
F 3 "" H 12950 6850 60  0000 C CNN
	1    12950 6850
	1    0    0    1   
$EndComp
Text GLabel 12600 7050 0    30   Input ~ 0
U2_V-
Text GLabel 12600 6650 0    30   Input ~ 0
U2_V+
Text Notes 13550 5450 0    30   ~ 0
3.5mm output
$Comp
L Switch_SPST SW1
U 1 1 58714E89
P 1800 1400
F 0 "SW1" H 1800 1525 50  0000 C CNN
F 1 "Slide Switch" H 1800 1250 50  0000 C CNN
F 2 "kicad-lib:Slide_Switch" H 1800 1400 60  0001 C CNN
F 3 "" H 1800 1400 60  0000 C CNN
	1    1800 1400
	1    0    0    -1  
$EndComp
$Comp
L Led_Small D1
U 1 1 5871C63A
P 3450 1500
F 0 "D1" H 3400 1625 50  0000 L CNN
F 1 "GREEN" H 3275 1400 50  0000 L CNN
F 2 "LEDs:LED-0805" V 3450 1500 60  0001 C CNN
F 3 "" V 3450 1500 60  0000 C CNN
	1    3450 1500
	-1   0    0    1   
$EndComp
$Comp
L R R13
U 1 1 5871C792
P 3100 1500
F 0 "R13" V 3180 1500 50  0000 C CNN
F 1 "330R" V 3100 1500 50  0000 C CNN
F 2 "Resistors_SMD:R_0603_HandSoldering" V 3030 1500 30  0001 C CNN
F 3 "" H 3100 1500 30  0000 C CNN
	1    3100 1500
	0    1    1    0   
$EndComp
$Comp
L GND #PWR012
U 1 1 5871C8EF
P 3650 1600
F 0 "#PWR012" H 3650 1350 50  0001 C CNN
F 1 "GND" H 3650 1450 50  0000 C CNN
F 2 "" H 3650 1600 60  0000 C CNN
F 3 "" H 3650 1600 60  0000 C CNN
	1    3650 1600
	1    0    0    -1  
$EndComp
$Comp
L +9V #PWR013
U 1 1 5871D08A
P 2850 1400
F 0 "#PWR013" H 2850 1250 50  0001 C CNN
F 1 "+9V" H 2850 1540 50  0000 C CNN
F 2 "" H 2850 1400 60  0000 C CNN
F 3 "" H 2850 1400 60  0000 C CNN
	1    2850 1400
	1    0    0    -1  
$EndComp
Text Notes 7050 1150 0    100  ~ 0
3-CHANNEL PORTABLE AUDIO MIXER
$Comp
L R R22
U 1 1 586EAC4B
P 2500 9950
F 0 "R22" V 2580 9950 50  0000 C CNN
F 1 "10K" V 2500 9950 50  0000 C CNN
F 2 "Resistors_SMD:R_0603_HandSoldering" V 2430 9950 30  0001 C CNN
F 3 "" H 2500 9950 30  0000 C CNN
	1    2500 9950
	0    1    1    0   
$EndComp
$Comp
L R R23
U 1 1 586EAD44
P 2750 10200
F 0 "R23" V 2830 10200 50  0000 C CNN
F 1 "1K2" V 2750 10200 50  0000 C CNN
F 2 "Resistors_SMD:R_0603_HandSoldering" V 2680 10200 30  0001 C CNN
F 3 "" H 2750 10200 30  0000 C CNN
	1    2750 10200
	-1   0    0    1   
$EndComp
$Comp
L BC550 Q1
U 1 1 586EBEC1
P 3050 9950
F 0 "Q1" H 3250 10025 50  0000 L CNN
F 1 "BC847C" H 3250 9950 50  0000 L CNN
F 2 "TO_SOT_Packages_SMD:SOT-23_Handsoldering" H 3250 9875 50  0001 L CIN
F 3 "" H 3050 9950 50  0000 L CNN
	1    3050 9950
	1    0    0    -1  
$EndComp
$Comp
L GND #PWR014
U 1 1 586ED701
P 2750 10550
F 0 "#PWR014" H 2750 10300 50  0001 C CNN
F 1 "GND" H 2750 10400 50  0000 C CNN
F 2 "" H 2750 10550 60  0000 C CNN
F 3 "" H 2750 10550 60  0000 C CNN
	1    2750 10550
	1    0    0    -1  
$EndComp
$Comp
L BC550 Q2
U 1 1 586F2EF7
P 3500 9650
F 0 "Q2" H 3700 9725 50  0000 L CNN
F 1 "BC847C" H 3700 9650 50  0000 L CNN
F 2 "TO_SOT_Packages_SMD:SOT-23_Handsoldering" H 3700 9575 50  0001 L CIN
F 3 "" H 3500 9650 50  0000 L CNN
	1    3500 9650
	1    0    0    -1  
$EndComp
$Comp
L R R26
U 1 1 586F5225
P 3600 10200
F 0 "R26" V 3680 10200 50  0000 C CNN
F 1 "4K7" V 3600 10200 50  0000 C CNN
F 2 "Resistors_SMD:R_0603_HandSoldering" V 3530 10200 30  0001 C CNN
F 3 "" H 3600 10200 30  0000 C CNN
	1    3600 10200
	-1   0    0    1   
$EndComp
$Comp
L R R24
U 1 1 586F989E
P 3150 9100
F 0 "R24" V 3230 9100 50  0000 C CNN
F 1 "220K" V 3150 9100 50  0000 C CNN
F 2 "Resistors_SMD:R_0603_HandSoldering" V 3080 9100 30  0001 C CNN
F 3 "" H 3150 9100 30  0000 C CNN
	1    3150 9100
	-1   0    0    1   
$EndComp
$Comp
L R R25
U 1 1 586F99D0
P 3600 9100
F 0 "R25" V 3680 9100 50  0000 C CNN
F 1 "4K7" V 3600 9100 50  0000 C CNN
F 2 "Resistors_SMD:R_0603_HandSoldering" V 3530 9100 30  0001 C CNN
F 3 "" H 3600 9100 30  0000 C CNN
	1    3600 9100
	-1   0    0    1   
$EndComp
$Comp
L +9V #PWR015
U 1 1 586FA9F5
P 3600 8750
F 0 "#PWR015" H 3600 8600 50  0001 C CNN
F 1 "+9V" H 3600 8890 50  0000 C CNN
F 2 "" H 3600 8750 60  0000 C CNN
F 3 "" H 3600 8750 60  0000 C CNN
	1    3600 8750
	1    0    0    -1  
$EndComp
$Comp
L Led_Small D2
U 1 1 586FF0FC
P 4150 9650
F 0 "D2" H 4100 9775 50  0000 L CNN
F 1 "GREEN" H 3975 9550 50  0000 L CNN
F 2 "LEDs:LED-0805" V 4150 9650 60  0001 C CNN
F 3 "" V 4150 9650 60  0000 C CNN
	1    4150 9650
	0    -1   -1   0   
$EndComp
Text Notes 2050 8900 0    60   ~ 12
CHANNEL A\nPEAK INDICATOR
Text GLabel 1650 9950 0    30   Input ~ 0
CH_A_LEFT
Text Notes 1400 9850 0    30   ~ 0
TESTAR COM POTENCIÓMETRO \nO VALOR DESTA RESISTÊNCIA
$Comp
L R R27
U 1 1 58726536
P 6000 9950
F 0 "R27" V 6080 9950 50  0000 C CNN
F 1 "10K" V 6000 9950 50  0000 C CNN
F 2 "Resistors_SMD:R_0603_HandSoldering" V 5930 9950 30  0001 C CNN
F 3 "" H 6000 9950 30  0000 C CNN
	1    6000 9950
	0    1    1    0   
$EndComp
$Comp
L R R28
U 1 1 5872653C
P 6250 10200
F 0 "R28" V 6330 10200 50  0000 C CNN
F 1 "1K2" V 6250 10200 50  0000 C CNN
F 2 "Resistors_SMD:R_0603_HandSoldering" V 6180 10200 30  0001 C CNN
F 3 "" H 6250 10200 30  0000 C CNN
	1    6250 10200
	-1   0    0    1   
$EndComp
$Comp
L BC550 Q3
U 1 1 58726542
P 6550 9950
F 0 "Q3" H 6750 10025 50  0000 L CNN
F 1 "BC847C" H 6750 9950 50  0000 L CNN
F 2 "TO_SOT_Packages_SMD:SOT-23_Handsoldering" H 6750 9875 50  0001 L CIN
F 3 "" H 6550 9950 50  0000 L CNN
	1    6550 9950
	1    0    0    -1  
$EndComp
$Comp
L GND #PWR016
U 1 1 5872654C
P 6250 10550
F 0 "#PWR016" H 6250 10300 50  0001 C CNN
F 1 "GND" H 6250 10400 50  0000 C CNN
F 2 "" H 6250 10550 60  0000 C CNN
F 3 "" H 6250 10550 60  0000 C CNN
	1    6250 10550
	1    0    0    -1  
$EndComp
$Comp
L BC550 Q4
U 1 1 58726556
P 7000 9650
F 0 "Q4" H 7200 9725 50  0000 L CNN
F 1 "BC847C" H 7200 9650 50  0000 L CNN
F 2 "TO_SOT_Packages_SMD:SOT-23_Handsoldering" H 7200 9575 50  0001 L CIN
F 3 "" H 7000 9650 50  0000 L CNN
	1    7000 9650
	1    0    0    -1  
$EndComp
$Comp
L R R31
U 1 1 5872655E
P 7100 10200
F 0 "R31" V 7180 10200 50  0000 C CNN
F 1 "4K7" V 7100 10200 50  0000 C CNN
F 2 "Resistors_SMD:R_0603_HandSoldering" V 7030 10200 30  0001 C CNN
F 3 "" H 7100 10200 30  0000 C CNN
	1    7100 10200
	-1   0    0    1   
$EndComp
$Comp
L R R29
U 1 1 58726571
P 6650 9100
F 0 "R29" V 6730 9100 50  0000 C CNN
F 1 "220K" V 6650 9100 50  0000 C CNN
F 2 "Resistors_SMD:R_0603_HandSoldering" V 6580 9100 30  0001 C CNN
F 3 "" H 6650 9100 30  0000 C CNN
	1    6650 9100
	-1   0    0    1   
$EndComp
$Comp
L R R30
U 1 1 58726577
P 7100 9100
F 0 "R30" V 7180 9100 50  0000 C CNN
F 1 "4K7" V 7100 9100 50  0000 C CNN
F 2 "Resistors_SMD:R_0603_HandSoldering" V 7030 9100 30  0001 C CNN
F 3 "" H 7100 9100 30  0000 C CNN
	1    7100 9100
	-1   0    0    1   
$EndComp
$Comp
L +9V #PWR017
U 1 1 58726582
P 7100 8750
F 0 "#PWR017" H 7100 8600 50  0001 C CNN
F 1 "+9V" H 7100 8890 50  0000 C CNN
F 2 "" H 7100 8750 60  0000 C CNN
F 3 "" H 7100 8750 60  0000 C CNN
	1    7100 8750
	1    0    0    -1  
$EndComp
$Comp
L Led_Small D3
U 1 1 58726589
P 7650 9650
F 0 "D3" H 7600 9775 50  0000 L CNN
F 1 "GREEN" H 7475 9550 50  0000 L CNN
F 2 "LEDs:LED-0805" V 7650 9650 60  0001 C CNN
F 3 "" V 7650 9650 60  0000 C CNN
	1    7650 9650
	0    -1   -1   0   
$EndComp
Text Notes 5550 8900 0    60   ~ 12
CHANNEL B\nPEAK INDICATOR
Text GLabel 5050 9950 0    30   Input ~ 0
CH_B_LEFT
$Comp
L R R32
U 1 1 58726D13
P 9500 9950
F 0 "R32" V 9580 9950 50  0000 C CNN
F 1 "10K" V 9500 9950 50  0000 C CNN
F 2 "Resistors_SMD:R_0603_HandSoldering" V 9430 9950 30  0001 C CNN
F 3 "" H 9500 9950 30  0000 C CNN
	1    9500 9950
	0    1    1    0   
$EndComp
$Comp
L R R33
U 1 1 58726D19
P 9750 10200
F 0 "R33" V 9830 10200 50  0000 C CNN
F 1 "1K2" V 9750 10200 50  0000 C CNN
F 2 "Resistors_SMD:R_0603_HandSoldering" V 9680 10200 30  0001 C CNN
F 3 "" H 9750 10200 30  0000 C CNN
	1    9750 10200
	-1   0    0    1   
$EndComp
$Comp
L BC550 Q5
U 1 1 58726D1F
P 10050 9950
F 0 "Q5" H 10250 10025 50  0000 L CNN
F 1 "BC847C" H 10250 9950 50  0000 L CNN
F 2 "TO_SOT_Packages_SMD:SOT-23_Handsoldering" H 10250 9875 50  0001 L CIN
F 3 "" H 10050 9950 50  0000 L CNN
	1    10050 9950
	1    0    0    -1  
$EndComp
$Comp
L GND #PWR018
U 1 1 58726D29
P 9750 10550
F 0 "#PWR018" H 9750 10300 50  0001 C CNN
F 1 "GND" H 9750 10400 50  0000 C CNN
F 2 "" H 9750 10550 60  0000 C CNN
F 3 "" H 9750 10550 60  0000 C CNN
	1    9750 10550
	1    0    0    -1  
$EndComp
$Comp
L BC550 Q6
U 1 1 58726D33
P 10500 9650
F 0 "Q6" H 10700 9725 50  0000 L CNN
F 1 "BC847C" H 10700 9650 50  0000 L CNN
F 2 "TO_SOT_Packages_SMD:SOT-23_Handsoldering" H 10700 9575 50  0001 L CIN
F 3 "" H 10500 9650 50  0000 L CNN
	1    10500 9650
	1    0    0    -1  
$EndComp
$Comp
L R R36
U 1 1 58726D3B
P 10600 10200
F 0 "R36" V 10680 10200 50  0000 C CNN
F 1 "4K7" V 10600 10200 50  0000 C CNN
F 2 "Resistors_SMD:R_0603_HandSoldering" V 10530 10200 30  0001 C CNN
F 3 "" H 10600 10200 30  0000 C CNN
	1    10600 10200
	-1   0    0    1   
$EndComp
$Comp
L R R34
U 1 1 58726D4E
P 10150 9100
F 0 "R34" V 10230 9100 50  0000 C CNN
F 1 "220K" V 10150 9100 50  0000 C CNN
F 2 "Resistors_SMD:R_0603_HandSoldering" V 10080 9100 30  0001 C CNN
F 3 "" H 10150 9100 30  0000 C CNN
	1    10150 9100
	-1   0    0    1   
$EndComp
$Comp
L R R35
U 1 1 58726D54
P 10600 9100
F 0 "R35" V 10680 9100 50  0000 C CNN
F 1 "4K7" V 10600 9100 50  0000 C CNN
F 2 "Resistors_SMD:R_0603_HandSoldering" V 10530 9100 30  0001 C CNN
F 3 "" H 10600 9100 30  0000 C CNN
	1    10600 9100
	-1   0    0    1   
$EndComp
$Comp
L +9V #PWR019
U 1 1 58726D5F
P 10600 8750
F 0 "#PWR019" H 10600 8600 50  0001 C CNN
F 1 "+9V" H 10600 8890 50  0000 C CNN
F 2 "" H 10600 8750 60  0000 C CNN
F 3 "" H 10600 8750 60  0000 C CNN
	1    10600 8750
	1    0    0    -1  
$EndComp
$Comp
L Led_Small D4
U 1 1 58726D66
P 11150 9650
F 0 "D4" H 11100 9775 50  0000 L CNN
F 1 "GREEN" H 10975 9550 50  0000 L CNN
F 2 "LEDs:LED-0805" V 11150 9650 60  0001 C CNN
F 3 "" V 11150 9650 60  0000 C CNN
	1    11150 9650
	0    -1   -1   0   
$EndComp
Text Notes 9050 8900 0    60   ~ 12
CHANNEL C\nPEAK INDICATOR
Text GLabel 8550 9950 0    30   Input ~ 0
CH_C_MONO
Text GLabel 5450 3300 1    30   Input ~ 0
CH_A_LEFT
Text GLabel 5450 5100 1    30   Input ~ 0
CH_B_LEFT
Text GLabel 5550 6500 0    30   Input ~ 0
CH_C_MONO
$Comp
L PWR_FLAG #FLG020
U 1 1 58733201
P 2400 1250
F 0 "#FLG020" H 2400 1345 50  0001 C CNN
F 1 "PWR_FLAG" H 2400 1430 50  0001 C CNN
F 2 "" H 2400 1250 60  0000 C CNN
F 3 "" H 2400 1250 60  0000 C CNN
	1    2400 1250
	1    0    0    -1  
$EndComp
$Comp
L PWR_FLAG #FLG021
U 1 1 58734C73
P 2400 1650
F 0 "#FLG021" H 2400 1745 50  0001 C CNN
F 1 "PWR_FLAG" H 2400 1830 50  0001 C CNN
F 2 "" H 2400 1650 60  0000 C CNN
F 3 "" H 2400 1650 60  0000 C CNN
	1    2400 1650
	-1   0    0    1   
$EndComp
$Comp
L +9V #PWR022
U 1 1 58739CAE
P 12750 6550
F 0 "#PWR022" H 12750 6400 50  0001 C CNN
F 1 "+9V" H 12750 6690 50  0000 C CNN
F 2 "" H 12750 6550 60  0000 C CNN
F 3 "" H 12750 6550 60  0000 C CNN
	1    12750 6550
	1    0    0    -1  
$EndComp
$Comp
L GND #PWR023
U 1 1 58739F51
P 12750 7150
F 0 "#PWR023" H 12750 6900 50  0001 C CNN
F 1 "GND" H 12900 7100 50  0000 C CNN
F 2 "" H 12750 7150 60  0000 C CNN
F 3 "" H 12750 7150 60  0000 C CNN
	1    12750 7150
	1    0    0    -1  
$EndComp
$Comp
L +9V #PWR024
U 1 1 5873BF6D
P 12750 3000
F 0 "#PWR024" H 12750 2850 50  0001 C CNN
F 1 "+9V" H 12750 3140 50  0000 C CNN
F 2 "" H 12750 3000 60  0000 C CNN
F 3 "" H 12750 3000 60  0000 C CNN
	1    12750 3000
	1    0    0    -1  
$EndComp
$Comp
L GND #PWR025
U 1 1 5873C478
P 12750 3600
F 0 "#PWR025" H 12750 3350 50  0001 C CNN
F 1 "GND" H 12900 3550 50  0000 C CNN
F 2 "" H 12750 3600 60  0000 C CNN
F 3 "" H 12750 3600 60  0000 C CNN
	1    12750 3600
	1    0    0    -1  
$EndComp
$Comp
L POT_DUAL_GANG RV7
U 1 1 5871770A
P 12450 4975
F 0 "RV7" H 12450 4825 30  0000 C CNN
F 1 "10K" H 12450 4875 30  0000 C CNN
F 2 "kicad-lib:P140KH_POT" H 12450 4975 60  0001 C CNN
F 3 "" H 12450 4975 60  0000 C CNN
	1    12450 4975
	1    0    0    -1  
$EndComp
$Comp
L GND #PWR026
U 1 1 5871EBD1
P 10650 4950
F 0 "#PWR026" H 10650 4700 50  0001 C CNN
F 1 "GND" H 10500 4850 50  0000 C CNN
F 2 "" H 10650 4950 60  0000 C CNN
F 3 "" H 10650 4950 60  0000 C CNN
	1    10650 4950
	1    0    0    -1  
$EndComp
$Comp
L R R37
U 1 1 58730A4C
P 1800 9950
F 0 "R37" V 1880 9950 50  0000 C CNN
F 1 "10K" V 1800 9950 50  0000 C CNN
F 2 "Resistors_SMD:R_0603_HandSoldering" V 1730 9950 30  0001 C CNN
F 3 "" H 1800 9950 30  0000 C CNN
	1    1800 9950
	0    1    1    0   
$EndComp
$Comp
L R R38
U 1 1 58734564
P 5300 9950
F 0 "R38" V 5380 9950 50  0000 C CNN
F 1 "10K" V 5300 9950 50  0000 C CNN
F 2 "Resistors_SMD:R_0603_HandSoldering" V 5230 9950 30  0001 C CNN
F 3 "" H 5300 9950 30  0000 C CNN
	1    5300 9950
	0    1    1    0   
$EndComp
$Comp
L R R39
U 1 1 58735F6F
P 8800 9950
F 0 "R39" V 8880 9950 50  0000 C CNN
F 1 "10K" V 8800 9950 50  0000 C CNN
F 2 "Resistors_SMD:R_0603_HandSoldering" V 8730 9950 30  0001 C CNN
F 3 "" H 8800 9950 30  0000 C CNN
	1    8800 9950
	0    1    1    0   
$EndComp
Text Notes 11850 10050 0    40   ~ 0
Peak Indicator: http://www.eeweb.com/blog/extreme_circuits/peak-indicator
Text Notes 11850 10150 0    40   ~ 0
Mixer: http://www.all-electric.com/schematic/simp_mix.htm
$Comp
L C_Small C19
U 1 1 58746F8D
P 11250 3500
F 0 "C19" H 11260 3570 50  0000 L CNN
F 1 "10n" H 11260 3420 50  0000 L CNN
F 2 "Capacitors_SMD:C_0603_HandSoldering" H 11250 3500 60  0001 C CNN
F 3 "" H 11250 3500 60  0000 C CNN
	1    11250 3500
	0    1    -1   0   
$EndComp
$Comp
L LM358 U2
U 1 1 5874A0A3
P 11250 4350
F 0 "U2" H 11200 4550 60  0000 L CNN
F 1 "LM358" H 11200 4100 60  0000 L CNN
F 2 "Housings_SOIC:SOIC-8_3.9x4.9mm_Pitch1.27mm" H 11250 4350 60  0001 C CNN
F 3 "" H 11250 4350 60  0000 C CNN
	1    11250 4350
	1    0    0    1   
$EndComp
$Comp
L LM358 U1
U 1 1 58749F8A
P 9550 4250
F 0 "U1" H 9500 4450 60  0000 L CNN
F 1 "LM358" H 9500 4000 60  0000 L CNN
F 2 "Housings_SOIC:SOIC-8_3.9x4.9mm_Pitch1.27mm" H 9550 4250 60  0001 C CNN
F 3 "" H 9550 4250 60  0000 C CNN
	1    9550 4250
	1    0    0    1   
$EndComp
Wire Wire Line
	5800 3750 5800 3850
Wire Wire Line
	5800 3850 6300 3850
Wire Wire Line
	6300 3150 5800 3150
Wire Wire Line
	5800 3150 5800 3250
Wire Wire Line
	6600 3150 6500 3150
Wire Wire Line
	6500 3850 6600 3850
Wire Wire Line
	5250 3600 5350 3600
Wire Wire Line
	5350 3600 5350 3700
Wire Wire Line
	5250 3400 5550 3400
Wire Wire Line
	5250 3500 5400 3500
Wire Wire Line
	5400 3500 5500 3600
Wire Wire Line
	5500 3600 5550 3600
Wire Wire Line
	6050 3400 6150 3400
Wire Wire Line
	6150 3400 6150 3700
Wire Wire Line
	6050 3600 6150 3600
Connection ~ 6150 3600
Wire Wire Line
	6900 3150 7200 3150
Wire Wire Line
	7050 3150 7050 3250
Wire Wire Line
	7050 3750 7050 3850
Wire Wire Line
	6900 3850 7200 3850
Wire Wire Line
	7200 3500 7300 3500
Wire Wire Line
	7300 3500 7300 3600
Connection ~ 7050 3850
Connection ~ 7050 3150
Wire Wire Line
	7500 3150 7600 3150
Wire Wire Line
	7600 3850 7500 3850
Wire Wire Line
	10550 4250 10750 4250
Connection ~ 10650 4250
Wire Wire Line
	10650 4450 10750 4450
Wire Notes Line
	8400 2400 8400 8250
Wire Wire Line
	5800 5550 5800 5650
Wire Wire Line
	5800 5650 6300 5650
Wire Wire Line
	6300 4950 5800 4950
Wire Wire Line
	5800 4950 5800 5050
Wire Wire Line
	6600 4950 6500 4950
Wire Wire Line
	6500 5650 6600 5650
Wire Wire Line
	5250 5400 5350 5400
Wire Wire Line
	5350 5400 5350 5500
Wire Wire Line
	5250 5200 5550 5200
Wire Wire Line
	5400 5300 5500 5400
Wire Wire Line
	5500 5400 5550 5400
Wire Wire Line
	6050 5200 6150 5200
Wire Wire Line
	6150 5200 6150 5500
Wire Wire Line
	6050 5400 6150 5400
Connection ~ 6150 5400
Wire Wire Line
	6900 4950 7200 4950
Wire Wire Line
	7050 4950 7050 5050
Wire Wire Line
	7050 5550 7050 5650
Wire Wire Line
	6900 5650 7200 5650
Wire Wire Line
	7200 5300 7300 5300
Wire Wire Line
	7300 5300 7300 5400
Connection ~ 7050 5650
Connection ~ 7050 4950
Wire Wire Line
	7500 4950 7600 4950
Wire Wire Line
	7600 5650 7500 5650
Wire Wire Line
	6600 6550 6500 6550
Wire Wire Line
	6500 7250 6600 7250
Wire Wire Line
	5250 7000 5350 7000
Wire Wire Line
	5350 7000 5350 7100
Wire Wire Line
	5250 6800 5400 6800
Wire Wire Line
	6900 6550 7200 6550
Wire Wire Line
	7050 6550 7050 6650
Wire Wire Line
	7050 7150 7050 7250
Wire Wire Line
	6900 7250 7200 7250
Wire Wire Line
	7200 6900 7300 6900
Wire Wire Line
	7300 6900 7300 7000
Connection ~ 7050 7250
Connection ~ 7050 6550
Wire Wire Line
	7500 6550 7600 6550
Wire Wire Line
	7600 7250 7500 7250
Wire Wire Line
	6500 6550 6500 7250
Wire Wire Line
	6400 6900 6500 6900
Connection ~ 6500 6900
Wire Wire Line
	6100 6900 6200 6900
Wire Wire Line
	5550 6650 5950 6650
Wire Wire Line
	5400 6800 5550 6650
Wire Wire Line
	5950 7250 5950 7150
Wire Wire Line
	2200 1200 2200 1400
Wire Wire Line
	2200 1500 2200 1700
Wire Wire Line
	2200 1500 1400 1500
Wire Wire Line
	12750 3000 12750 3200
Wire Wire Line
	12600 3100 12950 3100
Wire Wire Line
	12750 3400 12750 3600
Wire Wire Line
	12600 3500 12950 3500
Wire Wire Line
	12950 3100 12950 3200
Connection ~ 12750 3100
Wire Wire Line
	12950 3500 12950 3400
Connection ~ 12750 3500
Wire Wire Line
	12750 6550 12750 6750
Wire Wire Line
	12600 6650 12950 6650
Wire Wire Line
	12750 6950 12750 7150
Wire Wire Line
	12600 7050 12950 7050
Wire Wire Line
	12950 6650 12950 6750
Connection ~ 12750 6650
Wire Wire Line
	12950 7050 12950 6950
Connection ~ 12750 7050
Wire Wire Line
	1400 1400 1500 1400
Wire Wire Line
	2200 1400 2100 1400
Wire Wire Line
	2850 1400 2850 1500
Wire Wire Line
	3550 1500 3650 1500
Wire Wire Line
	3650 1500 3650 1600
Wire Wire Line
	3350 1500 3250 1500
Wire Wire Line
	2850 1500 2950 1500
Wire Wire Line
	2250 9950 2350 9950
Wire Wire Line
	2650 9950 2850 9950
Wire Wire Line
	2750 10050 2750 9950
Connection ~ 2750 9950
Wire Wire Line
	2750 10350 2750 10550
Wire Wire Line
	3150 10150 3150 10450
Wire Wire Line
	2750 10450 3600 10450
Connection ~ 2750 10450
Wire Wire Line
	3150 9250 3150 9750
Wire Wire Line
	3150 9650 3300 9650
Wire Wire Line
	3600 9850 3600 10050
Wire Wire Line
	3600 10450 3600 10350
Connection ~ 3150 10450
Wire Wire Line
	3600 9250 3600 9450
Wire Wire Line
	3500 9350 4150 9350
Wire Wire Line
	3300 9350 3150 9350
Connection ~ 3150 9650
Connection ~ 3150 9350
Connection ~ 3600 9350
Wire Wire Line
	3150 8950 3150 8850
Wire Wire Line
	3150 8850 3600 8850
Wire Wire Line
	3600 8750 3600 8950
Connection ~ 3600 8850
Wire Wire Line
	4150 9350 4150 9550
Wire Wire Line
	4150 9750 4150 9950
Wire Wire Line
	4150 9950 3600 9950
Connection ~ 3600 9950
Wire Wire Line
	1950 9950 2050 9950
Wire Wire Line
	5750 9950 5850 9950
Wire Wire Line
	6150 9950 6350 9950
Wire Wire Line
	6250 10050 6250 9950
Connection ~ 6250 9950
Wire Wire Line
	6250 10350 6250 10550
Wire Wire Line
	6650 10150 6650 10450
Wire Wire Line
	6250 10450 7100 10450
Connection ~ 6250 10450
Wire Wire Line
	6650 9250 6650 9750
Wire Wire Line
	6650 9650 6800 9650
Wire Wire Line
	7100 9850 7100 10050
Wire Wire Line
	7100 10450 7100 10350
Connection ~ 6650 10450
Wire Wire Line
	7100 9250 7100 9450
Wire Wire Line
	7000 9350 7650 9350
Wire Wire Line
	6800 9350 6650 9350
Connection ~ 6650 9650
Connection ~ 6650 9350
Connection ~ 7100 9350
Wire Wire Line
	6650 8950 6650 8850
Wire Wire Line
	6650 8850 7100 8850
Wire Wire Line
	7100 8750 7100 8950
Connection ~ 7100 8850
Wire Wire Line
	7650 9350 7650 9550
Wire Wire Line
	7650 9750 7650 9950
Wire Wire Line
	7650 9950 7100 9950
Connection ~ 7100 9950
Wire Wire Line
	5450 9950 5550 9950
Wire Wire Line
	9250 9950 9350 9950
Wire Wire Line
	9650 9950 9850 9950
Wire Wire Line
	9750 10050 9750 9950
Connection ~ 9750 9950
Wire Wire Line
	9750 10350 9750 10550
Wire Wire Line
	10150 10150 10150 10450
Wire Wire Line
	9750 10450 10600 10450
Connection ~ 9750 10450
Wire Wire Line
	10150 9250 10150 9750
Wire Wire Line
	10150 9650 10300 9650
Wire Wire Line
	10600 9850 10600 10050
Wire Wire Line
	10600 10450 10600 10350
Connection ~ 10150 10450
Wire Wire Line
	10600 9250 10600 9450
Wire Wire Line
	10500 9350 11150 9350
Wire Wire Line
	10300 9350 10150 9350
Connection ~ 10150 9650
Connection ~ 10150 9350
Connection ~ 10600 9350
Wire Wire Line
	10150 8950 10150 8850
Wire Wire Line
	10150 8850 10600 8850
Wire Wire Line
	10600 8750 10600 8950
Connection ~ 10600 8850
Wire Wire Line
	11150 9350 11150 9550
Wire Wire Line
	11150 9750 11150 9950
Wire Wire Line
	11150 9950 10600 9950
Connection ~ 10600 9950
Wire Wire Line
	8950 9950 9050 9950
Wire Wire Line
	5450 3300 5450 3400
Connection ~ 5450 3400
Wire Wire Line
	5450 5100 5450 5200
Connection ~ 5450 5200
Wire Wire Line
	5550 6500 5650 6500
Wire Wire Line
	5650 6500 5650 6650
Connection ~ 5650 6650
Wire Wire Line
	2400 1250 2400 1350
Wire Wire Line
	2400 1550 2400 1650
Wire Wire Line
	2400 1600 2200 1600
Connection ~ 2200 1600
Connection ~ 2400 1600
Wire Wire Line
	2400 1300 2200 1300
Connection ~ 2200 1300
Connection ~ 2400 1300
Wire Wire Line
	5250 5300 5400 5300
Wire Wire Line
	5050 9950 5150 9950
Wire Wire Line
	8550 9950 8650 9950
Wire Wire Line
	9450 4650 9350 4650
Wire Wire Line
	9350 3850 9450 3850
Wire Wire Line
	9400 3650 8950 3650
Wire Wire Line
	8950 3500 8950 4150
Wire Wire Line
	8850 4150 9050 4150
Wire Wire Line
	9450 3500 8950 3500
Connection ~ 8950 3650
Wire Wire Line
	10050 4250 10250 4250
Wire Wire Line
	9700 3650 10150 3650
Wire Wire Line
	10150 3500 10150 4250
Connection ~ 10150 4250
Wire Wire Line
	9650 3500 10150 3500
Connection ~ 10150 3650
Connection ~ 8950 4150
Wire Wire Line
	11050 4750 11150 4750
Wire Wire Line
	11050 3950 11150 3950
Wire Wire Line
	11100 3650 10650 3650
Wire Wire Line
	10650 3500 10650 4250
Wire Wire Line
	11150 3500 10650 3500
Connection ~ 10650 3650
Wire Wire Line
	11400 3650 11850 3650
Wire Wire Line
	11850 3500 11850 4350
Wire Wire Line
	11750 4350 12100 4350
Wire Wire Line
	11350 3500 11850 3500
Connection ~ 11850 3650
Wire Wire Line
	9050 4350 8950 4350
Wire Wire Line
	8950 4350 8950 4850
Wire Wire Line
	8950 4850 10650 4850
Wire Wire Line
	10650 4450 10650 4950
Connection ~ 10650 4850
Text GLabel 8850 5950 0    30   Input ~ 0
RIGHT
$Comp
L R R15
U 1 1 5877AF57
P 9550 5450
F 0 "R15" V 9630 5450 50  0000 C CNN
F 1 "33K" V 9550 5450 50  0000 C CNN
F 2 "Resistors_SMD:R_0603_HandSoldering" V 9480 5450 30  0001 C CNN
F 3 "" H 9550 5450 30  0000 C CNN
	1    9550 5450
	0    1    1    0   
$EndComp
$Comp
L C_Small C17
U 1 1 5877AF5D
P 9550 5300
F 0 "C17" H 9560 5370 50  0000 L CNN
F 1 "10n" H 9560 5220 50  0000 L CNN
F 2 "Capacitors_SMD:C_0603_HandSoldering" H 9550 5300 60  0001 C CNN
F 3 "" H 9550 5300 60  0000 C CNN
	1    9550 5300
	0    1    -1   0   
$EndComp
$Comp
L R R17
U 1 1 5877AF63
P 10400 6050
F 0 "R17" V 10480 6050 50  0000 C CNN
F 1 "10K" V 10400 6050 50  0000 C CNN
F 2 "Resistors_SMD:R_0603_HandSoldering" V 10330 6050 30  0001 C CNN
F 3 "" H 10400 6050 30  0000 C CNN
	1    10400 6050
	0    -1   1    0   
$EndComp
$Comp
L R R19
U 1 1 5877AF69
P 11250 5450
F 0 "R19" V 11330 5450 50  0000 C CNN
F 1 "10K" V 11250 5450 50  0000 C CNN
F 2 "Resistors_SMD:R_0603_HandSoldering" V 11180 5450 30  0001 C CNN
F 3 "" H 11250 5450 30  0000 C CNN
	1    11250 5450
	0    -1   1    0   
$EndComp
Text GLabel 9350 6450 0    30   Input ~ 0
U2_V+
Text GLabel 9350 5650 0    30   Input ~ 0
U2_V-
$Comp
L GND #PWR027
U 1 1 5877AF73
P 10650 6750
F 0 "#PWR027" H 10650 6500 50  0001 C CNN
F 1 "GND" H 10500 6650 50  0000 C CNN
F 2 "" H 10650 6750 60  0000 C CNN
F 3 "" H 10650 6750 60  0000 C CNN
	1    10650 6750
	1    0    0    -1  
$EndComp
$Comp
L C_Small C20
U 1 1 5877AF79
P 11250 5300
F 0 "C20" H 11260 5370 50  0000 L CNN
F 1 "10n" H 11260 5220 50  0000 L CNN
F 2 "Capacitors_SMD:C_0603_HandSoldering" H 11250 5300 60  0001 C CNN
F 3 "" H 11250 5300 60  0000 C CNN
	1    11250 5300
	0    1    -1   0   
$EndComp
$Comp
L LM358 U2
U 2 1 5877AF7F
P 11250 6150
F 0 "U2" H 11200 6350 60  0000 L CNN
F 1 "LM358" H 11200 5900 60  0000 L CNN
F 2 "Housings_SOIC:SOIC-8_3.9x4.9mm_Pitch1.27mm" H 11250 6150 60  0001 C CNN
F 3 "" H 11250 6150 60  0000 C CNN
	2    11250 6150
	1    0    0    1   
$EndComp
Wire Wire Line
	10550 6050 10750 6050
Connection ~ 10650 6050
Wire Wire Line
	10650 6250 10750 6250
Wire Wire Line
	9450 6450 9350 6450
Wire Wire Line
	9350 5650 9450 5650
Wire Wire Line
	9400 5450 8950 5450
Wire Wire Line
	8950 5300 8950 5950
Wire Wire Line
	8850 5950 9050 5950
Wire Wire Line
	9450 5300 8950 5300
Connection ~ 8950 5450
Wire Wire Line
	10050 6050 10250 6050
Wire Wire Line
	9700 5450 10150 5450
Wire Wire Line
	10150 5300 10150 6050
Connection ~ 10150 6050
Wire Wire Line
	9650 5300 10150 5300
Connection ~ 10150 5450
Connection ~ 8950 5950
Wire Wire Line
	11050 6550 11150 6550
Wire Wire Line
	11050 5750 11150 5750
Wire Wire Line
	11100 5450 10650 5450
Wire Wire Line
	10650 5300 10650 6050
Wire Wire Line
	11150 5300 10650 5300
Connection ~ 10650 5450
Wire Wire Line
	11400 5450 11850 5450
Wire Wire Line
	11850 5300 11850 6150
Wire Wire Line
	11750 6150 12100 6150
Wire Wire Line
	11350 5300 11850 5300
Connection ~ 11850 5450
Wire Wire Line
	9050 6150 8950 6150
Wire Wire Line
	8950 6150 8950 6650
Wire Wire Line
	8950 6650 10650 6650
Wire Wire Line
	10650 6250 10650 6750
Connection ~ 10650 6650
$Comp
L LM358 U1
U 2 1 5877AF85
P 9550 6050
F 0 "U1" H 9500 6250 60  0000 L CNN
F 1 "LM358" H 9500 5800 60  0000 L CNN
F 2 "Housings_SOIC:SOIC-8_3.9x4.9mm_Pitch1.27mm" H 9550 6050 60  0001 C CNN
F 3 "" H 9550 6050 60  0000 C CNN
	2    9550 6050
	1    0    0    1   
$EndComp
Text GLabel 11050 5750 0    30   Input ~ 0
U2_V-
Text GLabel 11050 6550 0    30   Input ~ 0
U2_V+
Wire Wire Line
	12100 4350 12100 5000
Wire Wire Line
	12100 5000 12200 5000
Connection ~ 11850 4350
Wire Wire Line
	12200 5200 12100 5200
Wire Wire Line
	12100 5200 12100 6150
Connection ~ 11850 6150
Wire Wire Line
	13000 4500 13000 4650
Wire Wire Line
	13000 4850 13000 5000
Wire Wire Line
	13000 5000 13350 5000
Wire Wire Line
	13000 5700 13000 5550
Wire Wire Line
	13000 5350 13000 5100
Wire Wire Line
	13000 5100 13350 5100
Wire Wire Line
	13000 4500 12900 4500
Wire Wire Line
	12600 4500 12450 4500
Wire Wire Line
	12450 4500 12450 4850
Wire Wire Line
	13000 5700 12900 5700
Wire Wire Line
	12600 5700 12450 5700
Wire Wire Line
	12450 5700 12450 5350
$Comp
L GND #PWR028
U 1 1 58793804
P 12800 5300
F 0 "#PWR028" H 12800 5050 50  0001 C CNN
F 1 "GND" H 12650 5200 50  0000 C CNN
F 2 "" H 12800 5300 60  0000 C CNN
F 3 "" H 12800 5300 60  0000 C CNN
	1    12800 5300
	1    0    0    -1  
$EndComp
Wire Wire Line
	12800 5000 12800 5300
Wire Wire Line
	12800 5000 12700 5000
Wire Wire Line
	12700 5200 12800 5200
Connection ~ 12800 5200
Text Notes 12150 4850 0    60   ~ 12
[VOL]
Wire Notes Line
	6550 3300 6550 2900
Wire Notes Line
	6550 2900 6250 2900
Wire Notes Line
	6250 2900 6250 3300
Wire Notes Line
	6250 3300 6550 3300
Text Notes 6150 2850 0    30   ~ 0
DC blocking cap.:\nElectrolytic >16V\n[0.1 - 47]uF pref: [1-10]uF
Text Notes 13300 4650 0    30   ~ 0
DC blocking cap.:\nElectrolytic >16V\n[0.1 - 47]uF pref: [1-10]uF
Wire Notes Line
	13150 4750 13250 4650
Wire Notes Line
	13250 4650 13250 4650
Text Notes 2150 9800 0    30   ~ 0
DC blocking cap.:\nElectrolytic >16V\n[0.1 - 47]uF pref: [1-10]uF
$Comp
L CP1_Small C8
U 1 1 587B0ACE
P 2150 9950
F 0 "C8" H 2160 10020 50  0000 L CNN
F 1 "2.2u" H 2160 9870 50  0000 L CNN
F 2 "SMD_Packages:SMD-1206_Pol" H 2150 9950 60  0001 C CNN
F 3 "" H 2150 9950 60  0000 C CNN
	1    2150 9950
	0    -1   -1   0   
$EndComp
$Comp
L CP1_Small C9
U 1 1 587B1571
P 3400 9350
F 0 "C9" H 3410 9420 50  0000 L CNN
F 1 "2.2u" H 3410 9270 50  0000 L CNN
F 2 "SMD_Packages:SMD-1206_Pol" H 3400 9350 60  0001 C CNN
F 3 "" H 3400 9350 60  0000 C CNN
	1    3400 9350
	0    1    1    0   
$EndComp
$Comp
L CP1_Small C10
U 1 1 587B30C3
P 5650 9950
F 0 "C10" H 5660 10020 50  0000 L CNN
F 1 "2.2u" H 5660 9870 50  0000 L CNN
F 2 "SMD_Packages:SMD-1206_Pol" H 5650 9950 60  0001 C CNN
F 3 "" H 5650 9950 60  0000 C CNN
	1    5650 9950
	0    -1   -1   0   
$EndComp
$Comp
L CP1_Small C12
U 1 1 587B3345
P 9150 9950
F 0 "C12" H 9160 10020 50  0000 L CNN
F 1 "2.2u" H 9160 9870 50  0000 L CNN
F 2 "SMD_Packages:SMD-1206_Pol" H 9150 9950 60  0001 C CNN
F 3 "" H 9150 9950 60  0000 C CNN
	1    9150 9950
	0    -1   -1   0   
$EndComp
$Comp
L CP1_Small C11
U 1 1 587B34E5
P 6900 9350
F 0 "C11" H 6910 9420 50  0000 L CNN
F 1 "2.2u" H 6910 9270 50  0000 L CNN
F 2 "SMD_Packages:SMD-1206_Pol" H 6900 9350 60  0001 C CNN
F 3 "" H 6900 9350 60  0000 C CNN
	1    6900 9350
	0    1    1    0   
$EndComp
$Comp
L CP1_Small C18
U 1 1 587B369A
P 10400 9350
F 0 "C18" H 10410 9420 50  0000 L CNN
F 1 "2.2u" H 10410 9270 50  0000 L CNN
F 2 "SMD_Packages:SMD-1206_Pol" H 10400 9350 60  0001 C CNN
F 3 "" H 10400 9350 60  0000 C CNN
	1    10400 9350
	0    1    1    0   
$EndComp
$Comp
L CP1_Small C21
U 1 1 587B85CD
P 13000 4750
F 0 "C21" H 13010 4820 50  0000 L CNN
F 1 "2.2u" H 13010 4670 50  0000 L CNN
F 2 "SMD_Packages:SMD-1206_Pol" H 13000 4750 60  0001 C CNN
F 3 "" H 13000 4750 60  0000 C CNN
	1    13000 4750
	1    0    0    -1  
$EndComp
$Comp
L CP1_Small C22
U 1 1 587B8DB9
P 13000 5450
F 0 "C22" H 13010 5520 50  0000 L CNN
F 1 "2.2u" H 13010 5370 50  0000 L CNN
F 2 "SMD_Packages:SMD-1206_Pol" H 13000 5450 60  0001 C CNN
F 3 "" H 13000 5450 60  0000 C CNN
	1    13000 5450
	1    0    0    1   
$EndComp
$Comp
L GND #PWR029
U 1 1 5876CFEB
P 13250 5300
F 0 "#PWR029" H 13250 5050 50  0001 C CNN
F 1 "GND" H 13100 5200 50  0000 C CNN
F 2 "" H 13250 5300 60  0000 C CNN
F 3 "" H 13250 5300 60  0000 C CNN
	1    13250 5300
	-1   0    0    -1  
$EndComp
Wire Wire Line
	13250 5300 13250 5200
Wire Wire Line
	13250 5200 13350 5200
$EndSCHEMATC
